Starting with data
…
The read_csv() function prints a message informing us on its best guess of the column contents. However, this statement doesn’t produce any output because, as you might recall, assignments don’t display anything. If we want to check that our data has been loaded properly, we can see the contents of the data frame by typing its name:

surveys

#> # A tibble: 34,786 x 13
#>    record_id month   day  year plot_id species_id sex   hindfoot_length weight
#>        <dbl> <dbl> <dbl> <dbl>   <dbl> <chr>      <chr>           <dbl>  <dbl>
#>  1         1     7    16  1977       2 NL         M                  32     NA
#>  2        72     8    19  1977       2 NL         M                  31     NA
#>  3       224     9    13  1977       2 NL         <NA>               NA     NA
#>  4       266    10    16  1977       2 NL         <NA>               NA     NA
#>  5       349    11    12  1977       2 NL         <NA>               NA     NA
#>  6       363    11    12  1977       2 NL         <NA>               NA     NA
#>  7       435    12    10  1977       2 NL         <NA>               NA     NA
#>  8       506     1     8  1978       2 NL         <NA>               NA     NA
#>  9       588     2    18  1978       2 NL         M                  NA    218
#> 10       661     3    11  1978       2 NL         <NA>               NA     NA
#> # … with 34,776 more rows, and 4 more variables: genus <chr>, species <chr>,
#> #   taxa <chr>, plot_type <chr>
…
Something went wrong: some dates have missing values. Let’s investigate where they are coming from.

We can use the functions we saw previously to deal with missing data to identify the rows in our data frame that are failing. If we combine them with what we learned about subsetting data frames earlier, we can extract the columns “year,”month“,”day" from the records that have NA in our new column date. We will also use head() so we don’t clutter the output:

is_missing_date <- is.na(surveys$date)
date_columns <- c("year", "month", "day")
missing_dates <- surveys[is_missing_date,  date_columns]

missing_dates

#> # A tibble: 129 x 3
#>     year month   day
#>    <dbl> <dbl> <dbl>
#>  1  2000     9    31
#>  2  2000     4    31
#>  3  2000     4    31
#>  4  2000     4    31
#>  5  2000     4    31
#>  6  2000     9    31
#>  7  2000     9    31
#>  8  2000     9    31
#>  9  2000     9    31
#> 10  2000     9    31
#> # … with 119 more rows
…
